{
  "project_info": {
    "project_number": "1008317232008",
    "firebase_url": "https://managyy-9ca9e.firebaseio.com",
    "project_id": "managyy-9ca9e",
    "storage_bucket": "managyy-9ca9e.appspot.com"
  },
  "client": [
    {
      "client_info": {
        "mobilesdk_app_id": "1:1008317232008:android:9e116791bf533f39",
        "android_client_info": {
          "package_name": "np.com.yashpoddar.schedule"
        }
      },
      "oauth_client": [
        {
          "client_id": "1008317232008-ieh12dcirq9hln96due8bog4q14oieuc.apps.googleusercontent.com",
          "client_type": 3
        }
      ],
      "api_key": [
        {
          "current_key": "AIzaSyDAcnVt7Bs07TPh-uMxwFbWjauCI0UJB2g"
        }
      ],
      "services": {
        "analytics_service": {
          "status": 1
        },
        "appinvite_service": {
          "status": 1,
          "other_platform_oauth_client": []
        },
        "ads_service": {
          "status": 2
        }
      }
    }
  ],
  "configuration_version": "1"
}